Finalproject: colonial transformation
…
col_transfor <- read_excel("Copy of Colonial_transformation_data.xls")

Analysis

The following codes are a part of my analysis which will lead me to answer my research question. The analysis will contain functions that cleans the spreadsheet, functions that arrange the data and visualization. Further detailed explanations of the codes will appear in the report that goes with this project.

Clean spreadsheet

In the column main colonial motherland xs appears, which will be disturbing for my visualization later in the analysis. Therefore i use the code filter to filter out all the xs. This creates a new dataset in the R environment which i named cleaned_colonies.

cleaned_colonies <-col_transfor %>%
  filter(`Main colonial motherland`!= "x")
cleaned_colonies

## # A tibble: 76 x 29
##    `Country Code W `Country Name` `Main colonial  `onset of colon
##    <chr>            <chr>          <chr>                       <dbl>
##  1 AGO              Angola         P                            1506
##  2 ARE              Unit. Arab. E UK                           1850
##  3 BDI              Burundi        B                            1897
##  4 BEN              Benin          F                            1878
##  5 BFA              Burkina Faso   F                            1896
##  6 BGD              Bangladesh     UK                           1757
##  7 BHR              Bahrain        UK                           1860
##  8 BRN              Brunei         UK                           1888
##  9 BWA              Botswana       UK                           1885
## 10 CAF              Central Afric F                            1890
## #  with 66 more rows, and 25 more variables: `end of colonialism, source:
## #   Ziltener/Knzler 2008` <dbl>, COLYEARS <dbl>, `Violent Colonization, Wars
## #   of Defence etc; Source: own coding; cf. COW Dataset (` <dbl>, `Violent
## #   Resistence, Revolts etc.; Source: own coding; cf. COW Dataset
## #   (0=non-V;` <dbl>, `Violent Independence; Source: own coding; cf. COW
## #   Dataset (0=non-V; 1=violence;` <dbl>, `colonial violence total` <dbl>,
## #   `Form of Colonial Domination (0, 1, 2, 3, 4,)` <dbl>, `Colonial
## #   administration historically first central adminstration (0=no;
## #   1=yes)` <dbl>, `ethnic function groups used by colonial power (0=no,
…
Arrange data with the countries that was colonized for the longest time

I wanted to see the countries listed in order of how many years they were a colony. Therefore i use the code arrange and desc which stands for descending order and implemented it on the column COLYEARS.

col_transfor %>% 
  arrange(desc(COLYEARS)) %>%
  select(`Country Name`, COLYEARS, everything())

## # A tibble: 86 x 29
##    `Country Name` COLYEARS `Country Code W `Main colonial  `onset of colon
##    <chr>             <dbl> <chr>            <chr>                       <dbl>
##  1 Angola              469 AGO              P                            1506
##  2 Malaysia            452 MYS              UK                           1511
##  3 Mozambique          406 MOZ              P                            1569
##  4 Philippines         381 PHL              US                           1565
##  5 Sri Lanka           351 LKA              UK                           1597
##  6 Indonesia           343 IDN              NL                           1619
##  7 South Africa        342 ZAF              UK                           1652
##  8 Taiwan              321 TWN              JP                           1624
##  9 Gambia, The         304 GMB              UK                           1661
## 10 Bangladesh          190 BGD              UK                           1757
## #  with 76 more rows, and 24 more variables: `end of colonialism, source:
## #   Ziltener/Knzler 2008` <dbl>, `Violent Colonization, Wars of Defence etc;
…
Economic transformation

In the following code blocks I have focused on the economic transformation that appeared in the years of the colonization. First I wanted to see the countries listed in order of the level of economic transformation they have experienced during colonization. Again I have used the arrange and desc function and implemented on the collumn "level of economic transformation (0-100).

col_transfor %>% 
  arrange(desc(`level of economic transformation (0-100)`)) %>%
  select(`Country Name`, `level of economic transformation (0-100)`, everything())

## # A tibble: 86 x 29
##    `Country Name` `level of econo `Country Code W `Main colonial 
##    <chr>                     <dbl> <chr>            <chr>           
##  1 Philippines                 100 PHL              US              
##  2 Fiji                         89 FJI              UK              
##  3 Algeria                      86 DZA              F               
##  4 Korea, Rep.                  86 KOR              JP              
##  5 Korea, Dem. R               86 PRK              JP              
##  6 South Africa                 86 ZAF              UK              
##  7 Zimbabwe                     86 ZWE              UK              
##  8 Cameroon                     82 CMR              F               
##  9 Indonesia                    82 IDN              NL              
## 10 Kenya                        82 KEN              UK              
## #  with 76 more rows, and 25 more variables: `onset of colonialism, source:
## #   Ziltener/Knzler 2008` <dbl>, `end of colonialism, source: Ziltener/Knzler
## #   2008` <dbl>, COLYEARS <dbl>, `Violent Colonization, Wars of Defence etc;
…
